Celâl Güney - Political Conflict and Inequality in Switzerland
…
ame <- 
 glmer_table  %>% 
  group_by({{group}}) %>% 
  summarise(ame = mean(estimate),
            high = mean(conf.high),
            low = mean(conf.low)) %>% 
  ungroup() %>% 
  mutate(variable = {{variable}})

print(ame)

}

# A tibble: 36 × 5
   annee_f      ame     high      low variable
   <fct>      <dbl>    <dbl>    <dbl> <chr>   
 1 1981    -0.0855  -0.0719  -0.0991  income  
 2 1982    -0.0899  -0.0763  -0.104   income  
 3 1983    -0.0686  -0.0555  -0.0816  income  
 4 1984    -0.0606  -0.0481  -0.0732  income  
 5 1985    -0.0413  -0.0310  -0.0517  income  
 6 1986    -0.0103  -0.00452 -0.0160  income  
 7 1987    -0.00389  0.00166 -0.00945 income  
 8 1988    -0.0235  -0.0156  -0.0314  income  
 9 1989    -0.0197  -0.0130  -0.0265  income  
10 1990    -0.0258  -0.0185  -0.0331  income  
# ℹ 26 more rows

# A tibble: 36 × 5
   annee_f     ame    high     low variable
   <fct>     <dbl>   <dbl>   <dbl> <chr>   
 1 1981    0.0302  0.0342  0.0261  educ    
 2 1982    0.0303  0.0345  0.0261  educ    
 3 1983    0.0160  0.0198  0.0122  educ    
 4 1984    0.0131  0.0168  0.00938 educ    
 5 1985    0.00565 0.00859 0.00272 educ    
 6 1986    0.0150  0.0172  0.0129  educ    
 7 1987    0.0131  0.0152  0.0109  educ    
 8 1988    0.00923 0.0116  0.00689 educ    
 9 1989    0.00878 0.0108  0.00677 educ    
10 1990    0.0155  0.0178  0.0133  educ    
# ℹ 26 more rows
…
glmer_plr <- glmer(data = vox,
                   formula = plr ~ income + educ + gender + age_cat + married + regionL + religion + (income + educ | annee_f),
                   family = binomial(link = "logit"))

# A tibble: 36 × 5
   annee_f    ame   high    low variable
   <fct>    <dbl>  <dbl>  <dbl> <chr>   
 1 1981    0.0743 0.0831 0.0654 income  
 2 1982    0.0721 0.0809 0.0633 income  
 3 1983    0.0747 0.0837 0.0657 income  
 4 1984    0.0699 0.0785 0.0613 income  
 5 1985    0.0610 0.0689 0.0531 income  
 6 1986    0.0245 0.0291 0.0198 income  
 7 1987    0.0367 0.0425 0.0310 income  
 8 1988    0.0551 0.0626 0.0476 income  
 9 1989    0.0457 0.0524 0.0391 income  
10 1990    0.0361 0.0419 0.0304 income  
# ℹ 26 more rows

# A tibble: 36 × 5
   annee_f     ame    high       low variable
   <fct>     <dbl>   <dbl>     <dbl> <chr>   
 1 1981    0.00338 0.00800 -0.00124  educ    
 2 1982    0.00274 0.00750 -0.00201  educ    
 3 1983    0.00700 0.0113   0.00266  educ    
 4 1984    0.0248  0.0296   0.0200   educ    
 5 1985    0.0175  0.0209   0.0141   educ    
 6 1986    0.00741 0.00994  0.00488  educ    
 7 1987    0.0119  0.0146   0.00920  educ    
 8 1988    0.0107  0.0140   0.00745  educ    
 9 1989    0.00204 0.00505 -0.000964 educ    
10 1990    0.00603 0.00856  0.00349  educ    
# ℹ 26 more rows
…
